%!PS-Adobe-2.0 EPSF-2.0
%%Creator: SM
%%BoundingBox: 18 144 592 718
%%DocumentFonts: Helvetica
%%EndComments
 20 dict begin
72 300 div dup scale
1 setlinejoin 0 setlinecap
/Courier findfont 55 scalefont setfont 
/B { currentpoint stroke newpath moveto } def
/F { moveto 0 setlinecap} def
/C { CS M 1 1 3 { pop 3 1 roll 255 div } for SET_COLOUR } def
/CS { currentpoint stroke } def
/CF { currentpoint fill } def
/L { lineto } def /M { moveto } def
/P { moveto 0 1 rlineto stroke } def
/T { currentlinecap exch 1 setlinecap show setlinecap } def
errordict /nocurrentpoint { pop 0 0 M currentpoint } put
/SET_COLOUR { setrgbcolor } def
 80 600 translate
gsave
CS [] 0 setdash M
CS M 1 100 mul 72 div dup setlinewidth
/P [ /moveto cvx 0 5 -1 roll .05 add dup -2 div 0 exch /rmoveto cvx /rlineto cvx /stroke cvx ] cvx def
 0 0 0 C
 0 0 0 C
CS [] 0 setdash M
292 292 M 2188 292 L
2188 2188 L
292 2188 L
292 292 L
2188 292 L
292 292 M 2188 292 L
292 292 M 292 334 L
272 213 M 290 255 M 284 253 L
280 247 L
278 237 L
278 231 L
280 221 L
284 215 L
290 213 L
294 213 L
300 215 L
304 221 L
306 231 L
306 237 L
304 247 L
300 253 L
294 255 L
290 255 L
286 253 L
284 251 L
282 247 L
280 237 L
280 231 L
282 221 L
284 217 L
286 215 L
290 213 L
294 213 M 298 215 L
300 217 L
302 221 L
304 231 L
304 237 L
302 247 L
300 251 L
298 253 L
294 255 L
387 292 M 387 313 L
481 292 M 481 313 L
576 292 M 576 313 L
671 292 M 671 334 L
651 213 M 659 247 M 661 245 L
659 243 L
657 245 L
657 247 L
659 251 L
661 253 L
667 255 L
675 255 L
681 253 L
683 251 L
685 247 L
685 243 L
683 239 L
677 235 L
667 231 L
663 229 L
659 225 L
657 219 L
657 213 L
675 255 M 679 253 L
681 251 L
683 247 L
683 243 L
681 239 L
675 235 L
667 231 L
657 217 M 659 219 L
663 219 L
673 215 L
679 215 L
683 217 L
685 219 L
663 219 M 673 213 L
681 213 L
683 215 L
685 219 L
685 223 L
766 292 M 766 313 L
861 292 M 861 313 L
955 292 M 955 313 L
1050 292 M 1050 334 L
1030 213 M 1054 251 M 1054 213 L
1056 255 M 1056 213 L
1056 255 M 1034 225 L
1066 225 L
1048 213 M 1062 213 L
1145 292 M 1145 313 L
1240 292 M 1240 313 L
1335 292 M 1335 313 L
1430 292 M 1430 334 L
1410 213 M 1440 249 M 1438 247 L
1440 245 L
1442 247 L
1442 249 L
1440 253 L
1436 255 L
1430 255 L
1424 253 L
1420 249 L
1418 245 L
1415 237 L
1415 225 L
1418 219 L
1422 215 L
1428 213 L
1432 213 L
1438 215 L
1442 219 L
1444 225 L
1444 227 L
1442 233 L
1438 237 L
1432 239 L
1430 239 L
1424 237 L
1420 233 L
1418 227 L
1430 255 M 1426 253 L
1422 249 L
1420 245 L
1418 237 L
1418 225 L
1420 219 L
1424 215 L
1428 213 L
1432 213 M 1436 215 L
1440 219 L
1442 225 L
1442 227 L
1440 233 L
1436 237 L
1432 239 L
1524 292 M 1524 313 L
1619 292 M 1619 313 L
1714 292 M 1714 313 L
1809 292 M 1809 334 L
1789 213 M 1805 255 M 1799 253 L
1797 249 L
1797 243 L
1799 239 L
1805 237 L
1813 237 L
1819 239 L
1821 243 L
1821 249 L
1819 253 L
1813 255 L
1805 255 L
1801 253 L
1799 249 L
1799 243 L
1801 239 L
1805 237 L
1813 237 M 1817 239 L
1819 243 L
1819 249 L
1817 253 L
1813 255 L
1805 237 M 1799 235 L
1797 233 L
1795 229 L
1795 221 L
1797 217 L
1799 215 L
1805 213 L
1813 213 L
1819 215 L
1821 217 L
1823 221 L
1823 229 L
1821 233 L
1819 235 L
1813 237 L
1805 237 M 1801 235 L
1799 233 L
1797 229 L
1797 221 L
1799 217 L
1801 215 L
1805 213 L
1813 213 M 1817 215 L
1819 217 L
1821 221 L
1821 229 L
1819 233 L
1817 235 L
1813 237 L
1904 292 M 1904 313 L
1998 292 M 1998 313 L
2093 292 M 2093 313 L
2188 292 M 2188 334 L
2148 213 M 2160 247 M 2164 249 L
2170 255 L
2170 213 L
2168 253 M 2168 213 L
2160 213 M 2178 213 L
2206 255 M 2200 253 L
2196 247 L
2194 237 L
2194 231 L
2196 221 L
2200 215 L
2206 213 L
2210 213 L
2216 215 L
2220 221 L
2222 231 L
2222 237 L
2220 247 L
2216 253 L
2210 255 L
2206 255 L
2202 253 L
2200 251 L
2198 247 L
2196 237 L
2196 231 L
2198 221 L
2200 217 L
2202 215 L
2206 213 L
2210 213 M 2214 215 L
2216 217 L
2218 221 L
2220 231 L
2220 237 L
2218 247 L
2216 251 L
2214 253 L
2210 255 L
292 2188 M 2188 2188 L
292 2188 M 292 2145 L
387 2188 M 387 2167 L
481 2188 M 481 2167 L
576 2188 M 576 2167 L
671 2188 M 671 2145 L
766 2188 M 766 2167 L
861 2188 M 861 2167 L
955 2188 M 955 2167 L
1050 2188 M 1050 2145 L
1145 2188 M 1145 2167 L
1240 2188 M 1240 2167 L
1335 2188 M 1335 2167 L
1430 2188 M 1430 2145 L
1524 2188 M 1524 2167 L
1619 2188 M 1619 2167 L
1714 2188 M 1714 2167 L
1809 2188 M 1809 2145 L
1904 2188 M 1904 2167 L
1998 2188 M 1998 2167 L
2093 2188 M 2093 2167 L
2188 2188 M 2188 2145 L
292 292 M 292 2188 L
292 292 M 334 292 L
215 271 M 233 313 M 227 311 L
223 305 L
221 295 L
221 289 L
223 279 L
227 273 L
233 271 L
237 271 L
243 273 L
247 279 L
249 289 L
249 295 L
247 305 L
243 311 L
237 313 L
233 313 L
229 311 L
227 309 L
225 305 L
223 295 L
223 289 L
225 279 L
227 275 L
229 273 L
233 271 L
237 271 M 241 273 L
243 275 L
245 279 L
247 289 L
247 295 L
245 305 L
243 309 L
241 311 L
237 313 L
292 387 M 313 387 L
292 481 M 313 481 L
292 576 M 313 576 L
292 671 M 313 671 L
292 766 M 334 766 L
215 745 M 225 787 M 221 767 L
225 771 L
CS M
231 773 L
237 773 L
243 771 L
247 767 L
249 761 L
249 757 L
247 751 L
243 747 L
237 745 L
231 745 L
225 747 L
223 749 L
221 753 L
221 755 L
223 757 L
225 755 L
223 753 L
237 773 M 241 771 L
245 767 L
247 761 L
247 757 L
245 751 L
241 747 L
237 745 L
225 787 M 245 787 L
225 785 M 235 785 L
245 787 L
292 861 M 313 861 L
292 955 M 313 955 L
292 1050 M 313 1050 L
292 1145 M 313 1145 L
292 1240 M 334 1240 L
175 1219 M 187 1253 M 191 1255 L
197 1261 L
197 1219 L
195 1259 M 195 1219 L
187 1219 M 205 1219 L
233 1261 M 227 1259 L
223 1253 L
221 1243 L
221 1237 L
223 1227 L
227 1221 L
233 1219 L
237 1219 L
243 1221 L
247 1227 L
249 1237 L
249 1243 L
247 1253 L
243 1259 L
237 1261 L
233 1261 L
229 1259 L
227 1257 L
225 1253 L
223 1243 L
223 1237 L
225 1227 L
227 1223 L
229 1221 L
233 1219 L
237 1219 M 241 1221 L
243 1223 L
245 1227 L
247 1237 L
247 1243 L
245 1253 L
243 1257 L
241 1259 L
237 1261 L
292 1335 M 313 1335 L
292 1430 M 313 1430 L
292 1524 M 313 1524 L
292 1619 M 313 1619 L
292 1714 M 334 1714 L
175 1693 M 187 1727 M 191 1729 L
197 1735 L
197 1693 L
195 1733 M 195 1693 L
187 1693 M 205 1693 L
225 1735 M 221 1715 L
225 1719 L
231 1721 L
237 1721 L
243 1719 L
247 1715 L
249 1709 L
249 1705 L
247 1699 L
243 1695 L
237 1693 L
231 1693 L
225 1695 L
223 1697 L
221 1701 L
221 1703 L
223 1705 L
225 1703 L
223 1701 L
237 1721 M 241 1719 L
245 1715 L
247 1709 L
247 1705 L
245 1699 L
241 1695 L
237 1693 L
225 1735 M 245 1735 L
225 1733 M 235 1733 L
245 1735 L
292 1809 M 313 1809 L
292 1904 M 313 1904 L
292 1998 M 313 1998 L
292 2093 M 313 2093 L
292 2188 M 334 2188 L
175 2167 M 183 2201 M 185 2199 L
183 2197 L
181 2199 L
181 2201 L
183 2205 L
185 2207 L
191 2209 L
199 2209 L
205 2207 L
207 2205 L
209 2201 L
209 2197 L
207 2193 L
201 2189 L
191 2185 L
187 2183 L
183 2179 L
181 2173 L
181 2167 L
199 2209 M 203 2207 L
205 2205 L
207 2201 L
207 2197 L
205 2193 L
199 2189 L
191 2185 L
181 2171 M 183 2173 L
187 2173 L
197 2169 L
203 2169 L
207 2171 L
209 2173 L
187 2173 M 197 2167 L
205 2167 L
207 2169 L
209 2173 L
209 2177 L
233 2209 M 227 2207 L
223 2201 L
221 2191 L
221 2185 L
223 2175 L
227 2169 L
233 2167 L
237 2167 L
243 2169 L
247 2175 L
249 2185 L
249 2191 L
247 2201 L
243 2207 L
237 2209 L
233 2209 L
229 2207 L
227 2205 L
225 2201 L
223 2191 L
223 2185 L
225 2175 L
227 2171 L
229 2169 L
233 2167 L
237 2167 M 241 2169 L
243 2171 L
245 2175 L
247 2185 L
247 2191 L
245 2201 L
243 2205 L
241 2207 L
237 2209 L
2188 292 M 2188 2188 L
2188 292 M 2145 292 L
2188 387 M 2167 387 L
2188 481 M 2167 481 L
2188 576 M 2167 576 L
2188 671 M 2167 671 L
2188 766 M 2145 766 L
2188 861 M 2167 861 L
2188 955 M 2167 955 L
2188 1050 M 2167 1050 L
2188 1145 M 2167 1145 L
2188 1240 M 2145 1240 L
2188 1335 M 2167 1335 L
2188 1430 M 2167 1430 L
2188 1524 M 2167 1524 L
2188 1619 M 2167 1619 L
2188 1714 M 2145 1714 L
2188 1809 M 2167 1809 L
2188 1904 M 2167 1904 L
2188 1998 M 2167 1998 L
2188 2093 M 2167 2093 L
2188 2188 M 2145 2188 L
CS [] 0 setdash M
CS [] 0 setdash M
CS M 1 100 mul 72 div dup setlinewidth
/P [ /moveto cvx 0 5 -1 roll .05 add dup -2 div 0 exch /rmoveto cvx /rlineto cvx /stroke cvx ] cvx def
 255 0 0 C
387 1809 M 481 1809 L
671 1809 L
861 1809 L
1050 1809 L
1240 1714 L
1430 1619 L
1619 1430 L
1809 1335 L
1904 1240 L
1998 1003 L
2093 766 L
CS [] 0 setdash M
CS M 1 100 mul 72 div dup setlinewidth
/P [ /moveto cvx 0 5 -1 roll .05 add dup -2 div 0 exch /rmoveto cvx /rlineto cvx /stroke cvx ] cvx def
 0 0 0 C
CS [6 12] 0 setdash M
CS M 1 100 mul 72 div dup setlinewidth
/P [ /moveto cvx 0 5 -1 roll .05 add dup -2 div 0 exch /rmoveto cvx /rlineto cvx /stroke cvx ] cvx def
 0 0 0 C
292 1809 M 481 1809 L
671 1807 L
861 1799 L
1050 1776 L
1240 1730 L
1430 1645 L
1619 1505 L
1809 1291 L
1998 979 L
2188 544 L
CS [] 0 setdash M
CS M 1 100 mul 72 div dup setlinewidth
/P [ /moveto cvx 0 5 -1 roll .05 add dup -2 div 0 exch /rmoveto cvx /rlineto cvx /stroke cvx ] cvx def
 0 0 0 C
CS [] 0 setdash M
1219 135 M 1228 177 M 1220 135 L
1230 177 M 1222 135 L
1240 165 M 1237 149 L
1222 177 M 1254 177 L
1252 165 L
1252 177 L
1226 157 M 1238 157 L
1214 135 M 1246 135 L
1248 147 L
1244 135 L
CS [] 0 setdash M
CS [] 0 setdash M
119 1209 M 77 1231 M 79 1225 L
85 1221 L
89 1219 L
95 1217 L
105 1215 L
113 1215 L
117 1217 L
119 1221 L
119 1225 L
117 1231 L
111 1235 L
107 1237 L
101 1239 L
91 1241 L
83 1241 L
79 1239 L
77 1235 L
77 1231 L
79 1227 L
85 1223 L
89 1221 L
95 1219 L
105 1217 L
113 1217 L
117 1219 L
119 1221 L
119 1225 M 117 1229 L
111 1233 L
107 1235 L
101 1237 L
91 1239 L
83 1239 L
79 1237 L
77 1235 L
97 1219 M 97 1237 L
113 1258 M 115 1254 L
118 1252 L
124 1251 L
128 1251 L
134 1252 L
137 1254 L
139 1258 L
139 1260 L
137 1264 L
134 1266 L
128 1267 L
124 1267 L
118 1266 L
115 1264 L
113 1260 L
113 1258 L
115 1255 L
116 1254 L
118 1253 L
124 1252 L
128 1252 L
134 1253 L
136 1254 L
137 1255 L
139 1258 L
139 1260 M 137 1263 L
CS M
136 1264 L
134 1265 L
128 1266 L
124 1266 L
118 1265 L
116 1264 L
115 1263 L
113 1260 L
CS [] 0 setdash M
599 879 M CS [] 0 setdash M
621 921 M 615 919 L
611 913 L
609 909 L
607 903 L
605 893 L
605 885 L
607 881 L
611 879 L
615 879 L
621 881 L
625 887 L
627 891 L
629 897 L
631 907 L
631 915 L
629 919 L
625 921 L
621 921 L
617 919 L
613 913 L
611 909 L
609 903 L
607 893 L
607 885 L
609 881 L
611 879 L
615 879 M 619 881 L
623 887 L
625 891 L
627 897 L
629 907 L
629 915 L
627 919 L
625 921 L
609 901 M 627 901 L
648 885 M 645 884 L
642 880 L
641 874 L
641 870 L
642 864 L
645 861 L
648 859 L
651 859 L
654 861 L
657 864 L
658 870 L
658 874 L
657 880 L
654 884 L
651 885 L
648 885 L
646 884 L
645 882 L
643 880 L
642 874 L
642 870 L
643 864 L
645 862 L
646 861 L
648 859 L
651 859 M 653 861 L
654 862 L
655 864 L
657 870 L
657 874 L
655 880 L
654 882 L
653 884 L
651 885 L
702 903 M 738 903 L
702 891 M 738 891 L
790 913 M 794 915 L
800 921 L
800 879 L
798 919 M 798 879 L
790 879 M 808 879 L
848 915 M 846 913 L
848 911 L
850 913 L
850 915 L
848 919 L
844 921 L
838 921 L
832 919 L
828 915 L
826 911 L
824 903 L
824 891 L
826 885 L
830 881 L
836 879 L
840 879 L
846 881 L
850 885 L
852 891 L
852 893 L
850 899 L
846 903 L
840 905 L
838 905 L
832 903 L
828 899 L
826 893 L
838 921 M 834 919 L
830 915 L
828 911 L
826 903 L
826 891 L
828 885 L
832 881 L
836 879 L
840 879 M 844 881 L
848 885 L
850 891 L
850 893 L
848 899 L
844 903 L
840 905 L
868 883 M 866 881 L
868 879 L
870 881 L
868 883 L
896 921 M 890 919 L
886 913 L
884 903 L
884 897 L
886 887 L
890 881 L
896 879 L
900 879 L
906 881 L
910 887 L
912 897 L
912 903 L
910 913 L
906 919 L
900 921 L
896 921 L
892 919 L
890 917 L
888 913 L
886 903 L
886 897 L
888 887 L
890 883 L
892 881 L
896 879 L
900 879 M 904 881 L
906 883 L
908 887 L
910 897 L
910 903 L
908 913 L
906 917 L
904 919 L
900 921 L
972 929 M 968 925 L
964 919 L
960 911 L
958 901 L
958 893 L
960 883 L
964 875 L
968 869 L
972 865 L
968 925 M 964 917 L
962 911 L
960 901 L
960 893 L
962 883 L
964 877 L
968 869 L
1022 913 M 1026 915 L
1032 921 L
1032 879 L
1030 919 M 1030 879 L
1022 879 M 1040 879 L
1091 897 M 1127 897 L
1185 921 M 1179 919 L
1175 913 L
1173 903 L
1173 897 L
1175 887 L
1179 881 L
1185 879 L
1189 879 L
1195 881 L
1199 887 L
1201 897 L
1201 903 L
1199 913 L
1195 919 L
1189 921 L
1185 921 L
1181 919 L
1179 917 L
1177 913 L
1175 903 L
1175 897 L
1177 887 L
1179 883 L
1181 881 L
1185 879 L
1189 879 M 1193 881 L
1195 883 L
1197 887 L
1199 897 L
1199 903 L
1197 913 L
1195 917 L
1193 919 L
1189 921 L
1217 883 M 1215 881 L
1217 879 L
1219 881 L
1217 883 L
1237 921 M 1233 901 L
1237 905 L
1243 907 L
1249 907 L
1255 905 L
1259 901 L
1261 895 L
1261 891 L
1259 885 L
1255 881 L
1249 879 L
1243 879 L
1237 881 L
1235 883 L
1233 887 L
1233 889 L
1235 891 L
1237 889 L
1235 887 L
1249 907 M 1253 905 L
1257 901 L
1259 895 L
1259 891 L
1257 885 L
1253 881 L
1249 879 L
1237 921 M 1257 921 L
1237 919 M 1247 919 L
1257 921 L
1321 929 M 1317 925 L
1313 919 L
1309 911 L
1307 901 L
1307 893 L
1309 883 L
1313 875 L
1317 869 L
1321 865 L
1317 925 M 1313 917 L
1311 911 L
1309 901 L
1309 893 L
1311 883 L
1313 877 L
1317 869 L
1336 921 M 1328 879 L
1338 921 M 1330 879 L
1348 909 M 1345 893 L
1331 921 M 1363 921 L
1360 909 L
1361 921 L
1334 901 M 1347 901 L
1322 879 M 1354 879 L
1357 891 L
1352 879 L
1410 929 M 1373 865 L
1430 921 M 1424 919 L
1422 915 L
1422 909 L
1424 905 L
1430 903 L
1438 903 L
1444 905 L
1446 909 L
1446 915 L
1444 919 L
1438 921 L
1430 921 L
1426 919 L
1424 915 L
1424 909 L
1426 905 L
1430 903 L
1438 903 M 1442 905 L
1444 909 L
1444 915 L
CS M
1442 919 L
1438 921 L
1430 903 M 1424 901 L
1422 899 L
1420 895 L
1420 887 L
1422 883 L
1424 881 L
1430 879 L
1438 879 L
1444 881 L
1446 883 L
1448 887 L
1448 895 L
1446 899 L
1444 901 L
1438 903 L
1430 903 M 1426 901 L
1424 899 L
1422 895 L
1422 887 L
1424 883 L
1426 881 L
1430 879 L
1438 879 M 1442 881 L
1444 883 L
1446 887 L
1446 895 L
1444 899 L
1442 901 L
1438 903 L
1464 883 M 1462 881 L
1464 879 L
1466 881 L
1464 883 L
1490 921 M 1484 919 L
1482 915 L
1482 909 L
1484 905 L
1490 903 L
1498 903 L
1504 905 L
1506 909 L
1506 915 L
1504 919 L
1498 921 L
1490 921 L
1486 919 L
1484 915 L
1484 909 L
1486 905 L
1490 903 L
1498 903 M 1502 905 L
1504 909 L
1504 915 L
1502 919 L
1498 921 L
1490 903 M 1484 901 L
1482 899 L
1480 895 L
1480 887 L
1482 883 L
1484 881 L
1490 879 L
1498 879 L
1504 881 L
1506 883 L
1508 887 L
1508 895 L
1506 899 L
1504 901 L
1498 903 L
1490 903 M 1486 901 L
1484 899 L
1482 895 L
1482 887 L
1484 883 L
1486 881 L
1490 879 L
1498 879 M 1502 881 L
1504 883 L
1506 887 L
1506 895 L
1504 899 L
1502 901 L
1498 903 L
1520 929 M 1524 925 L
1528 919 L
1532 911 L
1534 901 L
1534 893 L
1532 883 L
1528 875 L
1524 869 L
1520 865 L
1524 925 M 1528 917 L
1530 911 L
1532 901 L
1532 893 L
1530 883 L
1528 877 L
1524 869 L
1556 921 M 1556 898 L
1557 923 M 1557 898 L
1557 923 M 1544 905 L
1564 905 L
1553 898 M 1561 898 L
1604 929 M 1608 925 L
1612 919 L
1616 911 L
1618 901 L
1618 893 L
1616 883 L
1612 875 L
1608 869 L
1604 865 L
1608 925 M 1612 917 L
1614 911 L
1616 901 L
1616 893 L
1614 883 L
1612 877 L
1608 869 L
1626 879 M CS [] 0 setdash M
stroke
grestore
showpage
end
