%!PS-Adobe-2.0 EPSF-2.0
%%Creator: SM
%%BoundingBox: 18 144 592 718
%%DocumentFonts: Helvetica
%%EndComments
 20 dict begin
72 300 div dup scale
1 setlinejoin 0 setlinecap
/Courier findfont 55 scalefont setfont 
/B { currentpoint stroke newpath moveto } def
/F { moveto 0 setlinecap} def
/C { CS M 1 1 3 { pop 3 1 roll 255 div } for SET_COLOUR } def
/CS { currentpoint stroke } def
/CF { currentpoint fill } def
/L { lineto } def /M { moveto } def
/P { moveto 0 1 rlineto stroke } def
/T { currentlinecap exch 1 setlinecap show setlinecap } def
errordict /nocurrentpoint { pop 0 0 M currentpoint } put
/SET_COLOUR { setrgbcolor } def
 80 600 translate
gsave
CS [] 0 setdash M
CS M 1 100 mul 72 div dup setlinewidth
/P [ /moveto cvx 0 5 -1 roll .05 add dup -2 div 0 exch /rmoveto cvx /rlineto cvx /stroke cvx ] cvx def
 0 0 0 C
 0 0 0 C
CS [] 0 setdash M
292 292 M 2188 292 L
2188 2188 L
292 2188 L
292 292 L
2188 292 L
292 292 M 2188 292 L
292 292 M 292 334 L
272 213 M 290 255 M 284 253 L
280 247 L
278 237 L
278 231 L
280 221 L
284 215 L
290 213 L
294 213 L
300 215 L
304 221 L
306 231 L
306 237 L
304 247 L
300 253 L
294 255 L
290 255 L
286 253 L
284 251 L
282 247 L
280 237 L
280 231 L
282 221 L
284 217 L
286 215 L
290 213 L
294 213 M 298 215 L
300 217 L
302 221 L
304 231 L
304 237 L
302 247 L
300 251 L
298 253 L
294 255 L
418 292 M 418 313 L
545 292 M 545 313 L
671 292 M 671 313 L
797 292 M 797 313 L
924 292 M 924 334 L
884 213 M 896 247 M 900 249 L
906 255 L
906 213 L
904 253 M 904 213 L
896 213 M 914 213 L
942 255 M 936 253 L
932 247 L
930 237 L
930 231 L
932 221 L
936 215 L
942 213 L
946 213 L
952 215 L
956 221 L
958 231 L
958 237 L
956 247 L
952 253 L
946 255 L
942 255 L
938 253 L
936 251 L
934 247 L
932 237 L
932 231 L
934 221 L
936 217 L
938 215 L
942 213 L
946 213 M 950 215 L
952 217 L
954 221 L
956 231 L
956 237 L
954 247 L
952 251 L
950 253 L
946 255 L
1050 292 M 1050 313 L
1177 292 M 1177 313 L
1303 292 M 1303 313 L
1430 292 M 1430 313 L
1556 292 M 1556 334 L
1516 213 M 1524 247 M 1526 245 L
1524 243 L
1522 245 L
1522 247 L
1524 251 L
1526 253 L
1532 255 L
1540 255 L
1546 253 L
1548 251 L
1550 247 L
1550 243 L
1548 239 L
1542 235 L
1532 231 L
1528 229 L
1524 225 L
1522 219 L
1522 213 L
1540 255 M 1544 253 L
1546 251 L
1548 247 L
1548 243 L
1546 239 L
1540 235 L
1532 231 L
1522 217 M 1524 219 L
1528 219 L
1538 215 L
1544 215 L
1548 217 L
1550 219 L
1528 219 M 1538 213 L
1546 213 L
1548 215 L
1550 219 L
1550 223 L
1574 255 M 1568 253 L
1564 247 L
1562 237 L
1562 231 L
1564 221 L
1568 215 L
1574 213 L
1578 213 L
1584 215 L
1588 221 L
1590 231 L
1590 237 L
1588 247 L
1584 253 L
1578 255 L
1574 255 L
1570 253 L
1568 251 L
1566 247 L
1564 237 L
1564 231 L
1566 221 L
1568 217 L
1570 215 L
1574 213 L
1578 213 M 1582 215 L
1584 217 L
1586 221 L
1588 231 L
1588 237 L
1586 247 L
1584 251 L
1582 253 L
1578 255 L
1682 292 M 1682 313 L
1809 292 M 1809 313 L
1935 292 M 1935 313 L
2062 292 M 2062 313 L
2188 292 M 2188 334 L
2148 213 M 2156 247 M 2158 245 L
2156 243 L
2154 245 L
2154 247 L
2156 251 L
2158 253 L
2164 255 L
2172 255 L
2178 253 L
2180 249 L
2180 243 L
2178 239 L
2172 237 L
2166 237 L
2172 255 M 2176 253 L
2178 249 L
2178 243 L
2176 239 L
2172 237 L
2176 235 L
2180 231 L
2182 227 L
2182 221 L
2180 217 L
2178 215 L
2172 213 L
2164 213 L
2158 215 L
2156 217 L
2154 221 L
2154 223 L
2156 225 L
2158 223 L
2156 221 L
2178 233 M 2180 227 L
2180 221 L
2178 217 L
2176 215 L
2172 213 L
2206 255 M 2200 253 L
2196 247 L
2194 237 L
2194 231 L
2196 221 L
2200 215 L
2206 213 L
2210 213 L
2216 215 L
2220 221 L
2222 231 L
2222 237 L
2220 247 L
2216 253 L
2210 255 L
2206 255 L
2202 253 L
2200 251 L
2198 247 L
2196 237 L
2196 231 L
2198 221 L
2200 217 L
2202 215 L
2206 213 L
2210 213 M 2214 215 L
2216 217 L
2218 221 L
2220 231 L
2220 237 L
2218 247 L
2216 251 L
2214 253 L
2210 255 L
292 2188 M 2188 2188 L
292 2188 M 292 2145 L
418 2188 M 418 2167 L
545 2188 M 545 2167 L
671 2188 M 671 2167 L
797 2188 M 797 2167 L
924 2188 M 924 2145 L
1050 2188 M 1050 2167 L
1177 2188 M 1177 2167 L
1303 2188 M 1303 2167 L
1430 2188 M 1430 2167 L
1556 2188 M 1556 2145 L
1682 2188 M 1682 2167 L
1809 2188 M 1809 2167 L
1935 2188 M 1935 2167 L
2062 2188 M 2062 2167 L
2188 2188 M 2188 2145 L
292 292 M 292 2188 L
292 292 M 334 292 L
215 271 M 233 313 M 227 311 L
223 305 L
221 295 L
221 289 L
223 279 L
227 273 L
233 271 L
237 271 L
243 273 L
247 279 L
249 289 L
249 295 L
247 305 L
243 311 L
237 313 L
233 313 L
229 311 L
227 309 L
225 305 L
223 295 L
223 289 L
225 279 L
227 275 L
229 273 L
233 271 L
237 271 M 241 273 L
243 275 L
245 279 L
247 289 L
247 295 L
245 305 L
243 309 L
241 311 L
237 313 L
292 378 M 313 378 L
292 464 M 313 464 L
292 550 M 313 550 L
292 637 M 334 637 L
155 616 M 173 658 M 167 656 L
163 650 L
161 640 L
161 634 L
CS M
163 624 L
167 617 L
173 616 L
177 616 L
183 617 L
187 624 L
189 634 L
189 640 L
187 650 L
183 656 L
177 658 L
173 658 L
169 656 L
167 654 L
165 650 L
163 640 L
163 634 L
165 624 L
167 620 L
169 617 L
173 616 L
177 616 M 181 617 L
183 620 L
185 624 L
187 634 L
187 640 L
185 650 L
183 654 L
181 656 L
177 658 L
205 620 M 203 617 L
205 616 L
207 617 L
205 620 L
223 650 M 225 648 L
223 646 L
221 648 L
221 650 L
223 654 L
225 656 L
231 658 L
239 658 L
245 656 L
247 654 L
249 650 L
249 646 L
247 642 L
241 638 L
231 634 L
227 632 L
223 628 L
221 621 L
221 616 L
239 658 M 243 656 L
245 654 L
247 650 L
247 646 L
245 642 L
239 638 L
231 634 L
221 620 M 223 621 L
227 621 L
237 617 L
243 617 L
247 620 L
249 621 L
227 621 M 237 616 L
245 616 L
247 617 L
249 621 L
249 626 L
292 723 M 313 723 L
292 809 M 313 809 L
292 895 M 313 895 L
292 981 M 334 981 L
155 960 M 173 1002 M 167 1000 L
163 994 L
161 984 L
161 978 L
163 968 L
167 962 L
173 960 L
177 960 L
183 962 L
187 968 L
189 978 L
189 984 L
187 994 L
183 1000 L
177 1002 L
173 1002 L
169 1000 L
167 998 L
165 994 L
163 984 L
163 978 L
165 968 L
167 964 L
169 962 L
173 960 L
177 960 M 181 962 L
183 964 L
185 968 L
187 978 L
187 984 L
185 994 L
183 998 L
181 1000 L
177 1002 L
205 964 M 203 962 L
205 960 L
207 962 L
205 964 L
239 998 M 239 960 L
241 1002 M 241 960 L
241 1002 M 219 972 L
251 972 L
233 960 M 247 960 L
292 1068 M 313 1068 L
292 1154 M 313 1154 L
292 1240 M 313 1240 L
292 1326 M 334 1326 L
155 1305 M 173 1347 M 167 1345 L
163 1339 L
161 1329 L
161 1323 L
163 1313 L
167 1307 L
173 1305 L
177 1305 L
183 1307 L
187 1313 L
189 1323 L
189 1329 L
187 1339 L
183 1345 L
177 1347 L
173 1347 L
169 1345 L
167 1343 L
165 1339 L
163 1329 L
163 1323 L
165 1313 L
167 1309 L
169 1307 L
173 1305 L
177 1305 M 181 1307 L
183 1309 L
185 1313 L
187 1323 L
187 1329 L
185 1339 L
183 1343 L
181 1345 L
177 1347 L
205 1309 M 203 1307 L
205 1305 L
207 1307 L
205 1309 L
245 1341 M 243 1339 L
245 1337 L
247 1339 L
247 1341 L
245 1345 L
241 1347 L
235 1347 L
229 1345 L
225 1341 L
223 1337 L
221 1329 L
221 1317 L
223 1311 L
227 1307 L
233 1305 L
237 1305 L
243 1307 L
247 1311 L
249 1317 L
249 1319 L
247 1325 L
243 1329 L
237 1331 L
235 1331 L
229 1329 L
225 1325 L
223 1319 L
235 1347 M 231 1345 L
227 1341 L
225 1337 L
223 1329 L
223 1317 L
225 1311 L
229 1307 L
233 1305 L
237 1305 M 241 1307 L
245 1311 L
247 1317 L
247 1319 L
245 1325 L
241 1329 L
237 1331 L
292 1412 M 313 1412 L
292 1498 M 313 1498 L
292 1585 M 313 1585 L
292 1671 M 334 1671 L
155 1650 M 173 1692 M 167 1690 L
163 1684 L
161 1674 L
161 1668 L
163 1658 L
167 1652 L
173 1650 L
177 1650 L
183 1652 L
187 1658 L
189 1668 L
189 1674 L
187 1684 L
183 1690 L
177 1692 L
173 1692 L
169 1690 L
167 1688 L
165 1684 L
163 1674 L
163 1668 L
165 1658 L
167 1654 L
169 1652 L
173 1650 L
177 1650 M 181 1652 L
183 1654 L
185 1658 L
187 1668 L
187 1674 L
185 1684 L
183 1688 L
181 1690 L
177 1692 L
205 1654 M 203 1652 L
205 1650 L
207 1652 L
205 1654 L
231 1692 M 225 1690 L
223 1686 L
223 1680 L
225 1676 L
231 1674 L
239 1674 L
245 1676 L
247 1680 L
247 1686 L
245 1690 L
239 1692 L
231 1692 L
227 1690 L
225 1686 L
225 1680 L
227 1676 L
231 1674 L
239 1674 M 243 1676 L
245 1680 L
245 1686 L
243 1690 L
239 1692 L
231 1674 M 225 1672 L
223 1670 L
221 1666 L
221 1658 L
223 1654 L
225 1652 L
231 1650 L
239 1650 L
245 1652 L
247 1654 L
249 1658 L
249 1666 L
247 1670 L
245 1672 L
239 1674 L
231 1674 M 227 1672 L
225 1670 L
223 1666 L
223 1658 L
225 1654 L
227 1652 L
231 1650 L
239 1650 M 243 1652 L
245 1654 L
247 1658 L
247 1666 L
245 1670 L
243 1672 L
239 1674 L
292 1757 M 313 1757 L
292 1843 M 313 1843 L
292 1930 M 313 1930 L
292 2016 M 334 2016 L
215 1995 M 227 2029 M 231 2031 L
CS M
237 2037 L
237 1995 L
235 2035 M 235 1995 L
227 1995 M 245 1995 L
292 2102 M 313 2102 L
292 2188 M 313 2188 L
2188 292 M 2188 2188 L
2188 292 M 2145 292 L
2188 378 M 2167 378 L
2188 464 M 2167 464 L
2188 550 M 2167 550 L
2188 637 M 2145 637 L
2188 723 M 2167 723 L
2188 809 M 2167 809 L
2188 895 M 2167 895 L
2188 981 M 2145 981 L
2188 1068 M 2167 1068 L
2188 1154 M 2167 1154 L
2188 1240 M 2167 1240 L
2188 1326 M 2145 1326 L
2188 1412 M 2167 1412 L
2188 1498 M 2167 1498 L
2188 1585 M 2167 1585 L
2188 1671 M 2145 1671 L
2188 1757 M 2167 1757 L
2188 1843 M 2167 1843 L
2188 1930 M 2167 1930 L
2188 2016 M 2145 2016 L
2188 2102 M 2167 2102 L
2188 2188 M 2167 2188 L
CS [] 0 setdash M
CS [] 0 setdash M
CS M 1 100 mul 72 div dup setlinewidth
/P [ /moveto cvx 0 5 -1 roll .05 add dup -2 div 0 exch /rmoveto cvx /rlineto cvx /stroke cvx ] cvx def
 0 0 0 C
292 2016 M 418 1811 L
608 1229 L
924 809 L
1240 633 L
1556 527 L
1872 465 L
CS [] 0 setdash M
CS M 1 100 mul 72 div dup setlinewidth
/P [ /moveto cvx 0 5 -1 roll .05 add dup -2 div 0 exch /rmoveto cvx /rlineto cvx /stroke cvx ] cvx def
 0 0 0 C
CS [] 0 setdash M
CS M 1 100 mul 72 div dup setlinewidth
/P [ /moveto cvx 0 5 -1 roll .05 add dup -2 div 0 exch /rmoveto cvx /rlineto cvx /stroke cvx ] cvx def
 255 0 0 C
292 2016 M 418 1932 L
608 1737 L
924 1273 L
1240 939 L
1556 758 L
1872 645 L
CS [] 0 setdash M
CS M 1 100 mul 72 div dup setlinewidth
/P [ /moveto cvx 0 5 -1 roll .05 add dup -2 div 0 exch /rmoveto cvx /rlineto cvx /stroke cvx ] cvx def
 0 0 0 C
CS [] 0 setdash M
CS M 1 100 mul 72 div dup setlinewidth
/P [ /moveto cvx 0 5 -1 roll .05 add dup -2 div 0 exch /rmoveto cvx /rlineto cvx /stroke cvx ] cvx def
 0 0 255 C
292 2016 M 418 1965 L
608 1800 L
924 1445 L
1240 1148 L
1556 939 L
1872 788 L
CS [] 0 setdash M
CS M 1 100 mul 72 div dup setlinewidth
/P [ /moveto cvx 0 5 -1 roll .05 add dup -2 div 0 exch /rmoveto cvx /rlineto cvx /stroke cvx ] cvx def
 0 0 0 C
CS [32 24] 0 setdash M
CS M 1 100 mul 72 div dup setlinewidth
/P [ /moveto cvx 0 5 -1 roll .05 add dup -2 div 0 exch /rmoveto cvx /rlineto cvx /stroke cvx ] cvx def
 0 255 0 C
292 2016 M 418 1977 L
608 1843 L
924 1573 L
1240 1322 L
1556 1109 L
1872 945 L
CS [] 0 setdash M
CS M 1 100 mul 72 div dup setlinewidth
/P [ /moveto cvx 0 5 -1 roll .05 add dup -2 div 0 exch /rmoveto cvx /rlineto cvx /stroke cvx ] cvx def
 0 0 0 C
CS [] 0 setdash M
CS M 1 100 mul 72 div dup setlinewidth
/P [ /moveto cvx 0 5 -1 roll .05 add dup -2 div 0 exch /rmoveto cvx /rlineto cvx /stroke cvx ] cvx def
 0 255 0 C
292 2016 M 418 1985 L
608 1884 L
924 1689 L
1240 1492 L
1556 1311 L
1872 1157 L
CS [] 0 setdash M
CS M 1 100 mul 72 div dup setlinewidth
/P [ /moveto cvx 0 5 -1 roll .05 add dup -2 div 0 exch /rmoveto cvx /rlineto cvx /stroke cvx ] cvx def
 0 0 0 C
CS [] 0 setdash M
CS M 1 100 mul 72 div dup setlinewidth
/P [ /moveto cvx 0 5 -1 roll .05 add dup -2 div 0 exch /rmoveto cvx /rlineto cvx /stroke cvx ] cvx def
 255 0 255 C
292 2016 M 418 1990 L
608 1901 L
924 1737 L
1240 1580 L
1556 1439 L
1872 1320 L
CS [] 0 setdash M
CS M 1 100 mul 72 div dup setlinewidth
/P [ /moveto cvx 0 5 -1 roll .05 add dup -2 div 0 exch /rmoveto cvx /rlineto cvx /stroke cvx ] cvx def
 0 0 0 C
CS [] 0 setdash M
CS M 1 100 mul 72 div dup setlinewidth
/P [ /moveto cvx 0 5 -1 roll .05 add dup -2 div 0 exch /rmoveto cvx /rlineto cvx /stroke cvx ] cvx def
 0 255 255 C
292 2016 M 418 1990 L
608 1904 L
924 1745 L
1240 1592 L
1556 1456 L
1872 1341 L
CS [] 0 setdash M
CS M 1 100 mul 72 div dup setlinewidth
/P [ /moveto cvx 0 5 -1 roll .05 add dup -2 div 0 exch /rmoveto cvx /rlineto cvx /stroke cvx ] cvx def
 0 0 0 C
CS [] 0 setdash M
1126 135 M 1144 163 M 1138 161 L
1134 157 L
1132 151 L
1132 147 L
1134 141 L
1138 137 L
1144 135 L
1148 135 L
1154 137 L
1158 141 L
1160 147 L
1160 151 L
1158 157 L
1154 161 L
1148 163 L
1144 163 L
1140 161 L
1136 157 L
1134 151 L
1134 147 L
1136 141 L
1140 137 L
1144 135 L
1148 135 M 1152 137 L
1156 141 L
1158 147 L
1158 151 L
1156 157 L
1152 161 L
1148 163 L
1186 175 M 1184 173 L
1186 171 L
1188 173 L
1188 175 L
1186 177 L
1182 177 L
1178 175 L
1176 171 L
1176 135 L
1182 177 M 1180 175 L
1178 171 L
1178 135 L
1170 163 M 1186 163 L
1170 135 M 1184 135 L
1212 175 M 1210 173 L
1212 171 L
1214 173 L
1214 175 L
1212 177 L
1208 177 L
1204 175 L
1202 171 L
1202 135 L
1208 177 M 1206 175 L
1204 171 L
1204 135 L
1196 163 M 1212 163 L
1196 135 M 1210 135 L
1228 159 M 1228 157 L
1226 157 L
1226 159 L
1228 161 L
1232 163 L
1240 163 L
1244 161 L
1246 159 L
1248 155 L
1248 141 L
1250 137 L
1252 135 L
1246 159 M 1246 141 L
1248 137 L
1252 135 L
1254 135 L
1246 155 M 1244 153 L
1232 151 L
1226 149 L
1224 145 L
1224 141 L
1226 137 L
1232 135 L
1238 135 L
1242 137 L
1246 141 L
1232 151 M 1228 149 L
1226 145 L
1226 141 L
1228 137 L
1232 135 L
1266 163 M 1288 135 L
1268 163 M 1290 135 L
1290 163 M 1266 135 L
1262 163 M 1274 163 L
1282 163 M 1294 163 L
1262 135 M 1274 135 L
1282 135 M 1294 135 L
1308 177 M 1306 175 L
1308 173 L
1310 175 L
1308 177 L
1308 163 M 1308 135 L
1310 163 M 1310 135 L
1302 163 M 1310 163 L
1302 135 M 1316 135 L
1346 159 M 1348 163 L
1348 155 L
1346 159 L
1344 161 L
1340 163 L
1332 163 L
1328 161 L
1326 159 L
1326 155 L
1328 153 L
1332 151 L
1342 147 L
1346 145 L
1348 143 L
1326 157 M 1328 155 L
1332 153 L
1342 149 L
1346 147 L
1348 145 L
1348 139 L
1346 137 L
1342 135 L
1334 135 L
1330 137 L
1328 139 L
1326 143 L
1326 135 L
1328 139 L
CS [] 0 setdash M
CS [] 0 setdash M
105 1068 M 76 1074 M 105 1086 L
76 1076 M 101 1086 L
76 1099 M 105 1086 L
76 1070 M 76 1082 L
76 1090 M 76 1103 L
62 1115 M 64 1113 L
66 1115 L
64 1117 L
62 1115 L
76 1115 M 105 1115 L
76 1117 M 105 1117 L
76 1109 M 76 1117 L
105 1109 M 105 1123 L
76 1143 M 78 1139 L
80 1137 L
84 1135 L
88 1135 L
92 1137 L
94 1139 L
96 1143 L
96 1147 L
94 1151 L
92 1153 L
88 1155 L
84 1155 L
80 1153 L
78 1151 L
76 1147 L
76 1143 L
78 1139 M 82 1137 L
90 1137 L
94 1139 L
94 1151 M 90 1153 L
82 1153 L
78 1151 L
80 1153 M 78 1155 L
76 1159 L
78 1159 L
78 1155 L
92 1137 M 94 1135 L
98 1133 L
101 1133 L
105 1135 L
106 1141 L
106 1151 L
109 1157 L
110 1159 L
101 1133 M 102 1135 L
105 1141 L
105 1151 L
106 1157 L
110 1159 L
113 1159 L
117 1157 L
119 1151 L
119 1139 L
117 1133 L
113 1131 L
110 1131 L
106 1133 L
105 1139 L
76 1175 M 105 1175 L
76 1177 M 105 1177 L
82 1177 M 78 1181 L
76 1187 L
76 1191 L
78 1197 L
82 1199 L
105 1199 L
76 1191 M 78 1195 L
82 1197 L
105 1197 L
76 1169 M 76 1177 L
105 1169 M 105 1183 L
105 1191 M 105 1205 L
88 1217 M 88 1241 L
84 1241 L
80 1239 L
78 1237 L
76 1233 L
76 1227 L
78 1221 L
82 1217 L
88 1215 L
92 1215 L
98 1217 L
102 1221 L
105 1227 L
105 1231 L
102 1237 L
98 1241 L
88 1239 M 82 1239 L
78 1237 L
76 1227 M 78 1223 L
82 1219 L
88 1217 L
CS M
92 1217 L
98 1219 L
102 1223 L
105 1227 L
62 1257 M 96 1257 L
102 1259 L
105 1263 L
105 1267 L
102 1271 L
98 1273 L
62 1259 M 96 1259 L
102 1261 L
105 1263 L
76 1251 M 76 1267 L
62 1287 M 96 1287 L
102 1289 L
105 1293 L
105 1297 L
102 1301 L
98 1303 L
62 1289 M 96 1289 L
102 1291 L
105 1293 L
76 1281 M 76 1297 L
62 1317 M 64 1315 L
66 1317 L
64 1319 L
62 1317 L
76 1317 M 105 1317 L
76 1319 M 105 1319 L
76 1311 M 76 1319 L
105 1311 M 105 1325 L
76 1339 M 105 1339 L
76 1341 M 105 1341 L
82 1341 M 78 1345 L
76 1351 L
76 1355 L
78 1361 L
82 1363 L
105 1363 L
76 1355 M 78 1359 L
82 1361 L
105 1361 L
76 1333 M 76 1341 L
105 1333 M 105 1347 L
105 1355 M 105 1369 L
76 1389 M 78 1385 L
80 1383 L
84 1381 L
88 1381 L
92 1383 L
94 1385 L
96 1389 L
96 1393 L
94 1397 L
92 1399 L
88 1401 L
84 1401 L
80 1399 L
78 1397 L
76 1393 L
76 1389 L
78 1385 M 82 1383 L
90 1383 L
94 1385 L
94 1397 M 90 1399 L
82 1399 L
78 1397 L
80 1399 M 78 1401 L
76 1405 L
78 1405 L
78 1401 L
92 1383 M 94 1381 L
98 1379 L
101 1379 L
105 1381 L
106 1387 L
106 1397 L
109 1403 L
110 1405 L
101 1379 M 102 1381 L
105 1387 L
105 1397 L
106 1403 L
110 1405 L
113 1405 L
117 1403 L
119 1397 L
119 1385 L
117 1379 L
113 1377 L
110 1377 L
106 1379 L
105 1385 L
CS [] 0 setdash M
395 434 M CS [] 0 setdash M
407 468 M 411 470 L
417 476 L
417 434 L
415 474 M 415 434 L
407 434 M 425 434 L
445 434 M 443 436 L
445 438 L
447 436 L
447 432 L
445 428 L
443 426 L
495 468 M 497 466 L
495 464 L
493 466 L
493 468 L
495 472 L
497 474 L
503 476 L
511 476 L
517 474 L
519 472 L
521 468 L
521 464 L
519 460 L
513 456 L
503 452 L
499 450 L
495 446 L
493 440 L
493 434 L
511 476 M 515 474 L
517 472 L
519 468 L
519 464 L
517 460 L
511 456 L
503 452 L
493 438 M 495 440 L
499 440 L
509 436 L
515 436 L
519 438 L
521 440 L
499 440 M 509 434 L
517 434 L
519 436 L
521 440 L
521 444 L
537 434 M 535 436 L
537 438 L
539 436 L
539 432 L
537 428 L
535 426 L
603 472 M 603 434 L
605 476 M 605 434 L
605 476 M 583 446 L
615 446 L
597 434 M 611 434 L
629 434 M 627 436 L
629 438 L
631 436 L
631 432 L
629 428 L
627 426 L
682 476 M 678 456 L
682 460 L
688 462 L
694 462 L
700 460 L
704 456 L
706 450 L
706 446 L
704 440 L
700 436 L
694 434 L
688 434 L
682 436 L
680 438 L
678 442 L
678 444 L
680 446 L
682 444 L
680 442 L
694 462 M 698 460 L
702 456 L
704 450 L
704 446 L
702 440 L
698 436 L
694 434 L
682 476 M 702 476 L
682 474 M 692 474 L
702 476 L
722 434 M 720 436 L
722 438 L
724 436 L
724 432 L
722 428 L
720 426 L
794 470 M 792 468 L
794 466 L
796 468 L
796 470 L
794 474 L
790 476 L
784 476 L
778 474 L
774 470 L
772 466 L
770 458 L
770 446 L
772 440 L
776 436 L
782 434 L
786 434 L
792 436 L
796 440 L
798 446 L
798 448 L
796 454 L
792 458 L
786 460 L
784 460 L
778 458 L
774 454 L
772 448 L
784 476 M 780 474 L
776 470 L
774 466 L
772 458 L
772 446 L
774 440 L
778 436 L
782 434 L
786 434 M 790 436 L
794 440 L
796 446 L
796 448 L
794 454 L
790 458 L
786 460 L
814 434 M 812 436 L
814 438 L
816 436 L
816 432 L
814 428 L
812 426 L
872 476 M 866 474 L
864 470 L
864 464 L
866 460 L
872 458 L
880 458 L
886 460 L
888 464 L
888 470 L
886 474 L
880 476 L
872 476 L
868 474 L
866 470 L
866 464 L
868 460 L
872 458 L
880 458 M 884 460 L
886 464 L
886 470 L
884 474 L
880 476 L
872 458 M 866 456 L
864 454 L
862 450 L
862 442 L
864 438 L
866 436 L
872 434 L
880 434 L
886 436 L
888 438 L
890 442 L
890 450 L
888 454 L
886 456 L
880 458 L
872 458 M 868 456 L
866 454 L
864 450 L
864 442 L
866 438 L
868 436 L
872 434 L
880 434 M 884 436 L
886 438 L
888 442 L
888 450 L
886 454 L
884 456 L
880 458 L
906 434 M 904 436 L
906 438 L
908 436 L
908 432 L
906 428 L
904 426 L
980 462 M 978 456 L
CS M
974 452 L
968 450 L
966 450 L
960 452 L
956 456 L
954 462 L
954 464 L
956 470 L
960 474 L
966 476 L
970 476 L
976 474 L
980 470 L
982 464 L
982 452 L
980 444 L
978 440 L
974 436 L
968 434 L
962 434 L
958 436 L
956 440 L
956 442 L
958 444 L
960 442 L
958 440 L
966 450 M 962 452 L
958 456 L
956 462 L
956 464 L
958 470 L
962 474 L
966 476 L
970 476 M 974 474 L
978 470 L
980 464 L
980 452 L
978 444 L
976 440 L
972 436 L
968 434 L
999 438 M 997 436 L
999 434 L
1001 436 L
999 438 L
1019 476 M 1015 456 L
1019 460 L
1025 462 L
1031 462 L
1037 460 L
1041 456 L
1043 450 L
1043 446 L
1041 440 L
1037 436 L
1031 434 L
1025 434 L
1019 436 L
1017 438 L
1015 442 L
1015 444 L
1017 446 L
1019 444 L
1017 442 L
1031 462 M 1035 460 L
1039 456 L
1041 450 L
1041 446 L
1039 440 L
1035 436 L
1031 434 L
1019 476 M 1039 476 L
1019 474 M 1029 474 L
1039 476 L
1091 476 M 1091 434 L
1093 476 M 1093 434 L
1113 462 M 1093 442 L
1103 450 M 1115 434 L
1101 450 M 1113 434 L
1085 476 M 1093 476 L
1107 462 M 1119 462 L
1085 434 M 1099 434 L
1107 434 M 1119 434 L
1131 450 M 1155 450 L
1155 454 L
1153 458 L
1151 460 L
1147 462 L
1141 462 L
1135 460 L
1131 456 L
1129 450 L
1129 446 L
1131 440 L
1135 436 L
1141 434 L
1145 434 L
1151 436 L
1155 440 L
1153 450 M 1153 456 L
1151 460 L
1141 462 M 1137 460 L
1133 456 L
1131 450 L
1131 446 L
1133 440 L
1137 436 L
1141 434 L
1167 476 M 1181 434 L
1169 476 M 1181 440 L
1195 476 M 1181 434 L
1163 476 M 1175 476 L
1187 476 M 1199 476 L
1201 434 M CS [] 0 setdash M
CS [6 12] 0 setdash M
CS M 1 100 mul 72 div dup setlinewidth
/P [ /moveto cvx 0 5 -1 roll .05 add dup -2 div 0 exch /rmoveto cvx /rlineto cvx /stroke cvx ] cvx def
 0 0 0 C
292 1154 M 2188 1154 L
CS [] 0 setdash M
CS M 1 100 mul 72 div dup setlinewidth
/P [ /moveto cvx 0 5 -1 roll .05 add dup -2 div 0 exch /rmoveto cvx /rlineto cvx /stroke cvx ] cvx def
 0 0 0 C
stroke
grestore
showpage
end
