%!PS-Adobe-2.0 EPSF-2.0
%%Creator: SM
%%BoundingBox: 18 144 592 718
%%DocumentFonts: Helvetica
%%EndComments
 20 dict begin
72 300 div dup scale
1 setlinejoin 0 setlinecap
/Courier findfont 55 scalefont setfont 
/B { currentpoint stroke newpath moveto } def
/F { moveto 0 setlinecap} def
/C { CS M 1 1 3 { pop 3 1 roll 255 div } for SET_COLOUR } def
/CS { currentpoint stroke } def
/CF { currentpoint fill } def
/L { lineto } def /M { moveto } def
/P { moveto 0 1 rlineto stroke } def
/T { currentlinecap exch 1 setlinecap show setlinecap } def
errordict /nocurrentpoint { pop 0 0 M currentpoint } put
/SET_COLOUR { setrgbcolor } def
 80 600 translate
gsave
CS [] 0 setdash M
CS M 1 100 mul 72 div dup setlinewidth
/P [ /moveto cvx 0 5 -1 roll .05 add dup -2 div 0 exch /rmoveto cvx /rlineto cvx /stroke cvx ] cvx def
 0 0 0 C
 0 0 0 C
CS [] 0 setdash M
292 292 M 2188 292 L
2188 2188 L
292 2188 L
292 292 L
2188 292 L
292 292 M 2188 292 L
292 292 M 292 334 L
272 213 M 290 255 M 284 253 L
280 247 L
278 237 L
278 231 L
280 221 L
284 215 L
290 213 L
294 213 L
300 215 L
304 221 L
306 231 L
306 237 L
304 247 L
300 253 L
294 255 L
290 255 L
286 253 L
284 251 L
282 247 L
280 237 L
280 231 L
282 221 L
284 217 L
286 215 L
290 213 L
294 213 M 298 215 L
300 217 L
302 221 L
304 231 L
304 237 L
302 247 L
300 251 L
298 253 L
294 255 L
387 292 M 387 313 L
481 292 M 481 313 L
576 292 M 576 313 L
671 292 M 671 334 L
621 213 M 639 255 M 633 253 L
629 247 L
627 237 L
627 231 L
629 221 L
633 215 L
639 213 L
643 213 L
649 215 L
653 221 L
655 231 L
655 237 L
653 247 L
649 253 L
643 255 L
639 255 L
635 253 L
633 251 L
631 247 L
629 237 L
629 231 L
631 221 L
633 217 L
635 215 L
639 213 L
643 213 M 647 215 L
649 217 L
651 221 L
653 231 L
653 237 L
651 247 L
649 251 L
647 253 L
643 255 L
671 217 M 669 215 L
671 213 L
673 215 L
671 217 L
689 247 M 691 245 L
689 243 L
687 245 L
687 247 L
689 251 L
691 253 L
697 255 L
705 255 L
711 253 L
713 251 L
715 247 L
715 243 L
713 239 L
707 235 L
697 231 L
693 229 L
689 225 L
687 219 L
687 213 L
705 255 M 709 253 L
711 251 L
713 247 L
713 243 L
711 239 L
705 235 L
697 231 L
687 217 M 689 219 L
693 219 L
703 215 L
709 215 L
713 217 L
715 219 L
693 219 M 703 213 L
711 213 L
713 215 L
715 219 L
715 223 L
766 292 M 766 313 L
861 292 M 861 313 L
955 292 M 955 313 L
1050 292 M 1050 334 L
1000 213 M 1018 255 M 1012 253 L
1008 247 L
1006 237 L
1006 231 L
1008 221 L
1012 215 L
1018 213 L
1022 213 L
1028 215 L
1032 221 L
1034 231 L
1034 237 L
1032 247 L
1028 253 L
1022 255 L
1018 255 L
1014 253 L
1012 251 L
1010 247 L
1008 237 L
1008 231 L
1010 221 L
1012 217 L
1014 215 L
1018 213 L
1022 213 M 1026 215 L
1028 217 L
1030 221 L
1032 231 L
1032 237 L
1030 247 L
1028 251 L
1026 253 L
1022 255 L
1050 217 M 1048 215 L
1050 213 L
1052 215 L
1050 217 L
1084 251 M 1084 213 L
1086 255 M 1086 213 L
1086 255 M 1064 225 L
1096 225 L
1078 213 M 1092 213 L
1145 292 M 1145 313 L
1240 292 M 1240 313 L
1335 292 M 1335 313 L
1430 292 M 1430 334 L
1379 213 M 1397 255 M 1391 253 L
1387 247 L
1385 237 L
1385 231 L
1387 221 L
1391 215 L
1397 213 L
1401 213 L
1407 215 L
1411 221 L
1413 231 L
1413 237 L
1411 247 L
1407 253 L
1401 255 L
1397 255 L
1393 253 L
1391 251 L
1389 247 L
1387 237 L
1387 231 L
1389 221 L
1391 217 L
1393 215 L
1397 213 L
1401 213 M 1405 215 L
1407 217 L
1409 221 L
1411 231 L
1411 237 L
1409 247 L
1407 251 L
1405 253 L
1401 255 L
1429 217 M 1428 215 L
1429 213 L
1432 215 L
1429 217 L
1470 249 M 1468 247 L
1470 245 L
1472 247 L
1472 249 L
1470 253 L
1466 255 L
1460 255 L
1454 253 L
1450 249 L
1448 245 L
1446 237 L
1446 225 L
1448 219 L
1452 215 L
1458 213 L
1462 213 L
1468 215 L
1472 219 L
1474 225 L
1474 227 L
1472 233 L
1468 237 L
1462 239 L
1460 239 L
1454 237 L
1450 233 L
1448 227 L
1460 255 M 1456 253 L
1452 249 L
1450 245 L
1448 237 L
1448 225 L
1450 219 L
1454 215 L
1458 213 L
1462 213 M 1466 215 L
1470 219 L
1472 225 L
1472 227 L
1470 233 L
1466 237 L
1462 239 L
1524 292 M 1524 313 L
1619 292 M 1619 313 L
1714 292 M 1714 313 L
1809 292 M 1809 334 L
1759 213 M 1777 255 M 1771 253 L
1767 247 L
1765 237 L
1765 231 L
1767 221 L
1771 215 L
1777 213 L
1781 213 L
1787 215 L
1791 221 L
1793 231 L
1793 237 L
1791 247 L
1787 253 L
1781 255 L
1777 255 L
1773 253 L
1771 251 L
1769 247 L
1767 237 L
1767 231 L
1769 221 L
1771 217 L
1773 215 L
1777 213 L
1781 213 M 1785 215 L
1787 217 L
1789 221 L
1791 231 L
1791 237 L
1789 247 L
1787 251 L
1785 253 L
1781 255 L
1809 217 M 1807 215 L
1809 213 L
1811 215 L
1809 217 L
1835 255 M 1829 253 L
1827 249 L
1827 243 L
1829 239 L
1835 237 L
1843 237 L
1849 239 L
CS M
1851 243 L
1851 249 L
1849 253 L
1843 255 L
1835 255 L
1831 253 L
1829 249 L
1829 243 L
1831 239 L
1835 237 L
1843 237 M 1847 239 L
1849 243 L
1849 249 L
1847 253 L
1843 255 L
1835 237 M 1829 235 L
1827 233 L
1825 229 L
1825 221 L
1827 217 L
1829 215 L
1835 213 L
1843 213 L
1849 215 L
1851 217 L
1853 221 L
1853 229 L
1851 233 L
1849 235 L
1843 237 L
1835 237 M 1831 235 L
1829 233 L
1827 229 L
1827 221 L
1829 217 L
1831 215 L
1835 213 L
1843 213 M 1847 215 L
1849 217 L
1851 221 L
1851 229 L
1849 233 L
1847 235 L
1843 237 L
1904 292 M 1904 313 L
1998 292 M 1998 313 L
2093 292 M 2093 313 L
2188 292 M 2188 334 L
2168 213 M 2180 247 M 2184 249 L
2190 255 L
2190 213 L
2188 253 M 2188 213 L
2180 213 M 2198 213 L
292 2188 M 2188 2188 L
292 2188 M 292 2145 L
387 2188 M 387 2167 L
481 2188 M 481 2167 L
576 2188 M 576 2167 L
671 2188 M 671 2145 L
766 2188 M 766 2167 L
861 2188 M 861 2167 L
955 2188 M 955 2167 L
1050 2188 M 1050 2145 L
1145 2188 M 1145 2167 L
1240 2188 M 1240 2167 L
1335 2188 M 1335 2167 L
1430 2188 M 1430 2145 L
1524 2188 M 1524 2167 L
1619 2188 M 1619 2167 L
1714 2188 M 1714 2167 L
1809 2188 M 1809 2145 L
1904 2188 M 1904 2167 L
1998 2188 M 1998 2167 L
2093 2188 M 2093 2167 L
2188 2188 M 2188 2145 L
292 292 M 292 2188 L
292 292 M 313 292 L
292 387 M 313 387 L
292 481 M 334 481 L
155 460 M 173 502 M 167 500 L
163 494 L
161 484 L
161 478 L
163 468 L
167 462 L
173 460 L
177 460 L
183 462 L
187 468 L
189 478 L
189 484 L
187 494 L
183 500 L
177 502 L
173 502 L
169 500 L
167 498 L
165 494 L
163 484 L
163 478 L
165 468 L
167 464 L
169 462 L
173 460 L
177 460 M 181 462 L
183 464 L
185 468 L
187 478 L
187 484 L
185 494 L
183 498 L
181 500 L
177 502 L
205 464 M 203 462 L
205 460 L
207 462 L
205 464 L
223 494 M 225 492 L
223 490 L
221 492 L
221 494 L
223 498 L
225 500 L
231 502 L
239 502 L
245 500 L
247 498 L
249 494 L
249 490 L
247 486 L
241 482 L
231 478 L
227 476 L
223 472 L
221 466 L
221 460 L
239 502 M 243 500 L
245 498 L
247 494 L
247 490 L
245 486 L
239 482 L
231 478 L
221 464 M 223 466 L
227 466 L
237 462 L
243 462 L
247 464 L
249 466 L
227 466 M 237 460 L
245 460 L
247 462 L
249 466 L
249 470 L
292 576 M 313 576 L
292 671 M 313 671 L
292 766 M 313 766 L
292 861 M 334 861 L
155 840 M 173 882 M 167 880 L
163 874 L
161 864 L
161 858 L
163 848 L
167 842 L
173 840 L
177 840 L
183 842 L
187 848 L
189 858 L
189 864 L
187 874 L
183 880 L
177 882 L
173 882 L
169 880 L
167 878 L
165 874 L
163 864 L
163 858 L
165 848 L
167 844 L
169 842 L
173 840 L
177 840 M 181 842 L
183 844 L
185 848 L
187 858 L
187 864 L
185 874 L
183 878 L
181 880 L
177 882 L
205 844 M 203 842 L
205 840 L
207 842 L
205 844 L
239 878 M 239 840 L
241 882 M 241 840 L
241 882 M 219 852 L
251 852 L
233 840 M 247 840 L
292 955 M 313 955 L
292 1050 M 313 1050 L
292 1145 M 313 1145 L
292 1240 M 334 1240 L
155 1219 M 173 1261 M 167 1259 L
163 1253 L
161 1243 L
161 1237 L
163 1227 L
167 1221 L
173 1219 L
177 1219 L
183 1221 L
187 1227 L
189 1237 L
189 1243 L
187 1253 L
183 1259 L
177 1261 L
173 1261 L
169 1259 L
167 1257 L
165 1253 L
163 1243 L
163 1237 L
165 1227 L
167 1223 L
169 1221 L
173 1219 L
177 1219 M 181 1221 L
183 1223 L
185 1227 L
187 1237 L
187 1243 L
185 1253 L
183 1257 L
181 1259 L
177 1261 L
205 1223 M 203 1221 L
205 1219 L
207 1221 L
205 1223 L
245 1255 M 243 1253 L
245 1251 L
247 1253 L
247 1255 L
245 1259 L
241 1261 L
235 1261 L
229 1259 L
225 1255 L
223 1251 L
221 1243 L
221 1231 L
223 1225 L
227 1221 L
233 1219 L
237 1219 L
243 1221 L
247 1225 L
249 1231 L
249 1233 L
247 1239 L
243 1243 L
237 1245 L
235 1245 L
229 1243 L
225 1239 L
223 1233 L
235 1261 M 231 1259 L
227 1255 L
225 1251 L
223 1243 L
223 1231 L
225 1225 L
229 1221 L
233 1219 L
237 1219 M 241 1221 L
245 1225 L
247 1231 L
247 1233 L
245 1239 L
241 1243 L
237 1245 L
292 1335 M 313 1335 L
292 1430 M 313 1430 L
292 1524 M 313 1524 L
292 1619 M 334 1619 L
155 1598 M 173 1640 M 167 1638 L
163 1632 L
161 1622 L
161 1616 L
163 1606 L
167 1600 L
173 1598 L
177 1598 L
183 1600 L
187 1606 L
189 1616 L
CS M
189 1622 L
187 1632 L
183 1638 L
177 1640 L
173 1640 L
169 1638 L
167 1636 L
165 1632 L
163 1622 L
163 1616 L
165 1606 L
167 1602 L
169 1600 L
173 1598 L
177 1598 M 181 1600 L
183 1602 L
185 1606 L
187 1616 L
187 1622 L
185 1632 L
183 1636 L
181 1638 L
177 1640 L
205 1602 M 203 1600 L
205 1598 L
207 1600 L
205 1602 L
231 1640 M 225 1638 L
223 1634 L
223 1628 L
225 1624 L
231 1622 L
239 1622 L
245 1624 L
247 1628 L
247 1634 L
245 1638 L
239 1640 L
231 1640 L
227 1638 L
225 1634 L
225 1628 L
227 1624 L
231 1622 L
239 1622 M 243 1624 L
245 1628 L
245 1634 L
243 1638 L
239 1640 L
231 1622 M 225 1620 L
223 1618 L
221 1614 L
221 1606 L
223 1602 L
225 1600 L
231 1598 L
239 1598 L
245 1600 L
247 1602 L
249 1606 L
249 1614 L
247 1618 L
245 1620 L
239 1622 L
231 1622 M 227 1620 L
225 1618 L
223 1614 L
223 1606 L
225 1602 L
227 1600 L
231 1598 L
239 1598 M 243 1600 L
245 1602 L
247 1606 L
247 1614 L
245 1618 L
243 1620 L
239 1622 L
292 1714 M 313 1714 L
292 1809 M 313 1809 L
292 1904 M 313 1904 L
292 1998 M 334 1998 L
215 1977 M 227 2011 M 231 2013 L
237 2019 L
237 1977 L
235 2018 M 235 1977 L
227 1977 M 245 1977 L
292 2093 M 313 2093 L
292 2188 M 313 2188 L
2188 292 M 2188 2188 L
2188 292 M 2167 292 L
2188 387 M 2167 387 L
2188 481 M 2145 481 L
2188 576 M 2167 576 L
2188 671 M 2167 671 L
2188 766 M 2167 766 L
2188 861 M 2145 861 L
2188 955 M 2167 955 L
2188 1050 M 2167 1050 L
2188 1145 M 2167 1145 L
2188 1240 M 2145 1240 L
2188 1335 M 2167 1335 L
2188 1430 M 2167 1430 L
2188 1524 M 2167 1524 L
2188 1619 M 2145 1619 L
2188 1714 M 2167 1714 L
2188 1809 M 2167 1809 L
2188 1904 M 2167 1904 L
2188 1998 M 2145 1998 L
2188 2093 M 2167 2093 L
2188 2188 M 2167 2188 L
CS [] 0 setdash M
CS [] 0 setdash M
CS M 1 100 mul 72 div dup setlinewidth
/P [ /moveto cvx 0 5 -1 roll .05 add dup -2 div 0 exch /rmoveto cvx /rlineto cvx /stroke cvx ] cvx def
 0 0 0 C
2188 1998 M 2127 1906 L
1863 1692 L
1330 1182 L
955 814 L
732 615 L
599 491 L
CS [] 0 setdash M
CS M 1 100 mul 72 div dup setlinewidth
/P [ /moveto cvx 0 5 -1 roll .05 add dup -2 div 0 exch /rmoveto cvx /rlineto cvx /stroke cvx ] cvx def
 0 0 0 C
CS [] 0 setdash M
1002 127 M 1014 161 M 1018 163 L
1024 169 L
1024 127 L
1022 167 M 1022 127 L
1014 127 M 1032 127 L
1082 177 M 1046 113 L
1108 177 M 1104 173 L
1100 167 L
1096 159 L
1094 149 L
1094 141 L
1096 131 L
1100 123 L
1104 117 L
1108 113 L
1104 173 M 1100 165 L
1099 159 L
1096 149 L
1096 141 L
1099 131 L
1100 125 L
1104 117 L
1127 161 M 1131 163 L
1137 169 L
1137 127 L
1135 167 M 1135 127 L
1127 127 M 1145 127 L
1181 163 M 1181 127 L
1163 145 M 1199 145 L
1229 177 M 1225 173 L
1221 167 L
1217 159 L
1215 149 L
1215 141 L
1217 131 L
1221 123 L
1225 117 L
1229 113 L
1225 173 M 1221 165 L
1219 159 L
1217 149 L
1217 141 L
1219 131 L
1221 125 L
1225 117 L
1257 169 M 1251 167 L
1247 161 L
1245 157 L
1243 151 L
1241 141 L
1241 133 L
1243 129 L
1247 127 L
1251 127 L
1257 129 L
1261 135 L
1263 139 L
1265 145 L
1267 155 L
1267 163 L
1265 167 L
1261 169 L
1257 169 L
1253 167 L
1249 161 L
1247 157 L
1245 151 L
1243 141 L
1243 133 L
1245 129 L
1247 127 L
1251 127 M 1255 129 L
1259 135 L
1261 139 L
1263 145 L
1265 155 L
1265 163 L
1263 167 L
1261 169 L
1245 149 M 1263 149 L
1313 177 M 1277 113 L
1329 161 M 1333 163 L
1339 169 L
1339 127 L
1337 167 M 1337 127 L
1329 127 M 1347 127 L
1369 161 M 1373 163 L
1379 169 L
1379 127 L
1377 167 M 1377 127 L
1369 127 M 1387 127 L
1403 177 M 1407 173 L
1411 167 L
1415 159 L
1417 149 L
1417 141 L
1415 131 L
1411 123 L
1407 117 L
1403 113 L
1407 173 M 1411 165 L
1413 159 L
1415 149 L
1415 141 L
1413 131 L
1411 125 L
1407 117 L
1430 166 M 1431 165 L
1430 164 L
1429 165 L
1429 166 L
1430 169 L
1431 170 L
1435 171 L
1440 171 L
1443 170 L
1445 169 L
1446 166 L
1446 164 L
1445 161 L
1441 159 L
1435 157 L
1433 156 L
1430 153 L
1429 149 L
1429 146 L
1440 171 M 1442 170 L
1443 169 L
1445 166 L
1445 164 L
1443 161 L
1440 159 L
1435 157 L
1429 148 M 1430 149 L
1433 149 L
1439 147 L
1442 147 L
1445 148 L
1446 149 L
1433 149 M 1439 146 L
1443 146 L
1445 147 L
1446 149 L
1446 152 L
1455 177 M 1459 173 L
1463 167 L
1467 159 L
1470 149 L
1470 141 L
1467 131 L
1463 123 L
1459 117 L
1455 113 L
1459 173 M 1463 165 L
1466 159 L
1467 149 L
1467 141 L
1466 131 L
1463 125 L
1459 117 L
CS [] 0 setdash M
CS [] 0 setdash M
105 1068 M 76 1074 M 105 1086 L
76 1076 M 101 1086 L
76 1099 M 105 1086 L
76 1070 M 76 1082 L
76 1090 M 76 1103 L
62 1115 M 64 1113 L
66 1115 L
64 1117 L
62 1115 L
76 1115 M 105 1115 L
76 1117 M 105 1117 L
76 1109 M 76 1117 L
105 1109 M 105 1123 L
76 1143 M 78 1139 L
80 1137 L
84 1135 L
88 1135 L
92 1137 L
94 1139 L
96 1143 L
96 1147 L
94 1151 L
92 1153 L
CS M
88 1155 L
84 1155 L
80 1153 L
78 1151 L
76 1147 L
76 1143 L
78 1139 M 82 1137 L
90 1137 L
94 1139 L
94 1151 M 90 1153 L
82 1153 L
78 1151 L
80 1153 M 78 1155 L
76 1159 L
78 1159 L
78 1155 L
92 1137 M 94 1135 L
98 1133 L
101 1133 L
105 1135 L
106 1141 L
106 1151 L
109 1157 L
110 1159 L
101 1133 M 102 1135 L
105 1141 L
105 1151 L
106 1157 L
110 1159 L
113 1159 L
117 1157 L
119 1151 L
119 1139 L
117 1133 L
113 1131 L
110 1131 L
106 1133 L
105 1139 L
76 1175 M 105 1175 L
76 1177 M 105 1177 L
82 1177 M 78 1181 L
76 1187 L
76 1191 L
78 1197 L
82 1199 L
105 1199 L
76 1191 M 78 1195 L
82 1197 L
105 1197 L
76 1169 M 76 1177 L
105 1169 M 105 1183 L
105 1191 M 105 1205 L
88 1217 M 88 1241 L
84 1241 L
80 1239 L
78 1237 L
76 1233 L
76 1227 L
78 1221 L
82 1217 L
88 1215 L
92 1215 L
98 1217 L
102 1221 L
105 1227 L
105 1231 L
102 1237 L
98 1241 L
88 1239 M 82 1239 L
78 1237 L
76 1227 M 78 1223 L
82 1219 L
88 1217 L
92 1217 L
98 1219 L
102 1223 L
105 1227 L
62 1257 M 96 1257 L
102 1259 L
105 1263 L
105 1267 L
102 1271 L
98 1273 L
62 1259 M 96 1259 L
102 1261 L
105 1263 L
76 1251 M 76 1267 L
62 1287 M 96 1287 L
102 1289 L
105 1293 L
105 1297 L
102 1301 L
98 1303 L
62 1289 M 96 1289 L
102 1291 L
105 1293 L
76 1281 M 76 1297 L
62 1317 M 64 1315 L
66 1317 L
64 1319 L
62 1317 L
76 1317 M 105 1317 L
76 1319 M 105 1319 L
76 1311 M 76 1319 L
105 1311 M 105 1325 L
76 1339 M 105 1339 L
76 1341 M 105 1341 L
82 1341 M 78 1345 L
76 1351 L
76 1355 L
78 1361 L
82 1363 L
105 1363 L
76 1355 M 78 1359 L
82 1361 L
105 1361 L
76 1333 M 76 1341 L
105 1333 M 105 1347 L
105 1355 M 105 1369 L
76 1389 M 78 1385 L
80 1383 L
84 1381 L
88 1381 L
92 1383 L
94 1385 L
96 1389 L
96 1393 L
94 1397 L
92 1399 L
88 1401 L
84 1401 L
80 1399 L
78 1397 L
76 1393 L
76 1389 L
78 1385 M 82 1383 L
90 1383 L
94 1385 L
94 1397 M 90 1399 L
82 1399 L
78 1397 L
80 1399 M 78 1401 L
76 1405 L
78 1405 L
78 1401 L
92 1383 M 94 1381 L
98 1379 L
101 1379 L
105 1381 L
106 1387 L
106 1397 L
109 1403 L
110 1405 L
101 1379 M 102 1381 L
105 1387 L
105 1397 L
106 1403 L
110 1405 L
113 1405 L
117 1403 L
119 1397 L
119 1385 L
117 1379 L
113 1377 L
110 1377 L
106 1379 L
105 1385 L
CS [] 0 setdash M
603 1735 M CS [] 0 setdash M
613 1778 M 613 1735 L
615 1778 M 615 1735 L
627 1766 M 627 1749 L
607 1778 M 639 1778 L
639 1766 L
637 1778 L
615 1757 M 627 1757 L
607 1735 M 639 1735 L
639 1747 L
637 1735 L
685 1760 M 721 1760 L
685 1747 M 721 1747 L
777 1778 M 771 1776 L
769 1772 L
769 1766 L
771 1762 L
777 1760 L
785 1760 L
791 1762 L
793 1766 L
793 1772 L
791 1776 L
785 1778 L
777 1778 L
773 1776 L
771 1772 L
771 1766 L
773 1762 L
777 1760 L
785 1760 M 789 1762 L
791 1766 L
791 1772 L
789 1776 L
785 1778 L
777 1760 M 771 1757 L
769 1756 L
767 1752 L
767 1743 L
769 1739 L
771 1737 L
777 1735 L
785 1735 L
791 1737 L
793 1739 L
795 1743 L
795 1752 L
793 1756 L
791 1757 L
785 1760 L
777 1760 M 773 1757 L
771 1756 L
769 1752 L
769 1743 L
771 1739 L
773 1737 L
777 1735 L
785 1735 M 789 1737 L
791 1739 L
793 1743 L
793 1752 L
791 1756 L
789 1757 L
785 1760 L
844 1778 M 844 1735 L
846 1778 M 846 1735 L
866 1764 M 846 1743 L
856 1752 M 868 1735 L
854 1752 M 866 1735 L
838 1778 M 846 1778 L
860 1764 M 872 1764 L
838 1735 M 852 1735 L
860 1735 M 872 1735 L
884 1752 M 908 1752 L
908 1756 L
906 1760 L
904 1762 L
900 1764 L
894 1764 L
888 1762 L
884 1757 L
882 1752 L
882 1747 L
884 1741 L
888 1737 L
894 1735 L
898 1735 L
904 1737 L
908 1741 L
906 1752 M 906 1757 L
904 1762 L
894 1764 M 890 1762 L
886 1757 L
884 1752 L
884 1747 L
886 1741 L
890 1737 L
894 1735 L
920 1778 M 934 1735 L
922 1778 M 934 1741 L
948 1778 M 934 1735 L
916 1778 M 928 1778 L
940 1778 M 952 1778 L
954 1735 M CS [] 0 setdash M
stroke
grestore
showpage
end
