\relax 
\ifx\hyper@anchor\@undefined
\global \let \oldcontentsline\contentsline
\gdef \contentsline#1#2#3#4{\oldcontentsline{#1}{#2}{#3}}
\global \let \oldnewlabel\newlabel
\gdef \newlabel#1#2{\newlabelxx{#1}#2}
\gdef \newlabelxx#1#2#3#4#5#6{\oldnewlabel{#1}{{#2}{#3}}}
\AtEndDocument{\let \contentsline\oldcontentsline
\let \newlabel\oldnewlabel}
\else
\global \let \hyper@last\relax 
\fi

\@writefile{toc}{\contentsline {section}{\numberline {1}XSPEC spectral files and related calibration}{1}{section.1}}
\newlabel{eq:def:1}{{1}{1}{XSPEC spectral files and related calibration\relax }{Item.3}{}}
\newlabel{eq:bg:subtr}{{2}{1}{XSPEC spectral files and related calibration\relax }{Item.4}{}}
\newlabel{eq:corr:subtr}{{3}{1}{XSPEC spectral files and related calibration\relax }{Item.6}{}}
\@writefile{toc}{\contentsline {section}{\numberline {2}Adding two spectra}{2}{section.2}}
\@writefile{toc}{\contentsline {subsection}{\numberline {2.1}Mathematics}{2}{subsection.2.1}}
\newlabel{eq:add:src:spec}{{6}{2}{Mathematics\relax }{equation.6}{}}
\@writefile{toc}{\contentsline {paragraph}{Adding exposures}{2}{section*.1}}
\@writefile{toc}{\contentsline {subsubsection}{\numberline {2.1.1}Adding background and correction files}{2}{subsubsection.2.1.1}}
\newlabel{eq:add:bg:1}{{9}{2}{Adding background and correction files\relax }{equation.9}{}}
\newlabel{eq:add:bg:2}{{10}{2}{Adding background and correction files\relax }{equation.10}{}}
\newlabel{eq:add:bg:exp_and_backscal}{{12}{2}{Adding background and correction files\relax }{equation.12}{}}
\newlabel{eq:add:bg}{{13}{3}{Adding background and correction files\relax }{equation.13}{}}
\newlabel{eq:corr:bg:exp_and_corrscal}{{14}{3}{Adding background and correction files\relax }{equation.14}{}}
\newlabel{eq:add:corr}{{15}{3}{Adding background and correction files\relax }{equation.15}{}}
\@writefile{toc}{\contentsline {paragraph}{Error calculations}{3}{section*.2}}
\@writefile{toc}{\contentsline {subsubsection}{\numberline {2.1.2}Adding response data}{3}{subsubsection.2.1.2}}
\newlabel{sec:adding-response-data}{{2.1.2}{3}{Adding response data\relax }{subsubsection.2.1.2}{}}
\newlabel{eq:arf}{{17}{3}{Adding response data\relax }{equation.17}{}}
\newlabel{eq:rmf}{{18}{3}{Adding response data\relax }{equation.18}{}}
\newlabel{eq:resp:weight}{{28}{4}{Adding response data\relax }{equation.28}{}}
\@writefile{toc}{\contentsline {subsection}{\numberline {2.2}Software}{4}{subsection.2.2}}
\@writefile{toc}{\contentsline {subsubsection}{\numberline {2.2.1}Adding source spectra with {\normalfont  \texttt  {mathpha}}}{4}{subsubsection.2.2.1}}
\@writefile{toc}{\contentsline {subsubsection}{\numberline {2.2.2}Adding background and correction files}{4}{subsubsection.2.2.2}}
\@writefile{toc}{\contentsline {subsubsection}{\numberline {2.2.3}Issues for {\normalfont  \texttt  {mathpha}}}{4}{subsubsection.2.2.3}}
\@writefile{toc}{\contentsline {subsubsection}{\numberline {2.2.4}Adding response files}{5}{subsubsection.2.2.4}}
\@writefile{toc}{\contentsline {subsubsection}{\numberline {2.2.5}Updating headers}{5}{subsubsection.2.2.5}}
\@writefile{toc}{\contentsline {section}{\numberline {3}Adding more than two spectra}{5}{section.3}}
\@writefile{toc}{\contentsline {subsection}{\numberline {3.1}Adding many spectra ``in turn''}{5}{subsection.3.1}}
